REPORT-ID=KYC00330
FILE=/u01/source/documents/KYC/20200814/329/081420_B0003/0001-000301.pdf,TYPE=PDF,SECTION=0001-0003-01
TOPIC-ID=ACCTNO,"TOPIC-ITEM=0001-0003-01"
TOPIC-ID=ACCTNAME,"TOPIC-ITEM=acctname31"

FILE=/u01/source/documents/KYC/20200814/329/081420_B0003/0001-0003-02.pdf,TYPE=PDF,SECTION=0001-0003-0
TOPIC-ID=ACCTNO,"TOPIC-ITEM=0001-0003-02"
TOPIC-ID=ACCTNAME,"TOPIC-ITEM=acctname32"

FILE=/u01/source/documents/KYC/20200814/329/081420_B0003/0001-0003-03.pdf,TYPE=PDF,SECTION=0001-0003-03
TOPIC-ID=ACCTNO,"TOPIC-ITEM=0001-0003-03"
TOPIC-ID=ACCTNAME,"TOPIC-ITEM=acctname33"

FILE=/u01/source/documents/KYC/20200814/329/081420_B0003/0001-0003-04.pdf,TYPE=PDF,SECTION=0001-0003-04
TOPIC-ID=ACCTNO,"TOPIC-ITEM=0001-0003-04"
TOPIC-ID=ACCTNAME,"TOPIC-ITEM=acctname34"

FILE=/u01/source/documents/KYC/20200814/329/081420_B0003/0001-0003-05.pdf,TYPE=PDF,SECTION=0001-0003-05
TOPIC-ID=ACCTNO,"TOPIC-ITEM=1234-5678-90"
TOPIC-ID=ACCTNAME,"TOPIC-ITEM=acctname35"

